simulation/qsim/ContadorEstados.msim.vcd
$comment
	File created using the following command:
		vcd file ContadorEstados.msim.vcd -direction
$end
$date
	Wed Apr 18 18:27:28 2018
$end
$version
	ModelSim Version 10.1d
$end
$timescale
	1ps
$end
$scope module contadorEstado_vlg_vec_tst $end
$var reg 1 ! a0 $end
$var reg 1 " a1 $end
$var reg 1 # a2 $end
$var reg 1 $ a3 $end
$var reg 1 % clk $end
$var reg 1 & edo_Cont $end
$var reg 4 ' treg_Q [3:0] $end
$var reg 1 ( rst $end
$var wire 1 ) Q [3] $end
$var wire 1 * Q [2] $end
$var wire 1 + Q [1] $end
$var wire 1 , Q [0] $end
$var wire 1 - sampler $end
$scope module i1 $end
$var wire 1 . gnd $end
$var wire 1 / vcc $end
$var wire 1 0 unknown $end
$var tri1 1 1 devclrn $end
$var tri1 1 2 devpor $end
$var tri1 1 3 devoe $end
$var wire 1 4 a2~combout $end
$var wire 1 5 a3~combout $end
$var wire 1 6 clk~combout $end
$var wire 1 7 clk~clkctrl_outclk $end
$var wire 1 8 rst~combout $end
$var wire 1 9 a0~combout $end
$var wire 1 : Q~8_combout $end
$var wire 1 ; Q[0]~reg0_regout $end
$var wire 1 < a1~combout $end
$var wire 1 = edo_Cont~combout $end
$var wire 1 > Q~9_combout $end
$var wire 1 ? Q~10_combout $end
$var wire 1 @ Q[1]~reg0_regout $end
$var wire 1 A Add0~0_combout $end
$var wire 1 B Q~11_combout $end
$var wire 1 C Q[2]~reg0_regout $end
$var wire 1 D Add0~1_combout $end
$var wire 1 E Q~12_combout $end
$var wire 1 F Q[3]~reg0_regout $end
$upscope $end
$upscope $end
$enddefinitions $end
#0
$dumpvars
0!
0"
0#
0$
0%
0&
bz '
0(
0,
0+
0*
0)
x-
0.
1/
x0
11
12
13
04
05
06
07
08
09
1:
0;
0<
0=
0>
0?
0@
0A
0B
0C
0D
0E
0F
$end
#10000
1%
16
17
0-
1;
1>
0:
1,
1?
#20000
0%
06
07
1-
#30000
1%
16
17
0-
1@
0;
1:
1+
0,
#40000
0%
06
07
1-
#50000
1%
16
17
0-
1;
1A
0>
0:
1,
1B
0?
#60000
0%
06
07
1-
#70000
1%
16
17
0-
1C
0@
0;
1:
1*
0+
0,
#80000
0%
06
07
1-
#90000
1%
16
17
0-
1;
1>
0:
1,
1?
#100000
0%
06
07
1-
#110000
1%
16
17
0-
1@
0;
1:
1+
0,
#120000
1(
0%
18
06
07
1-
0B
0>
0:
0?
#130000
1%
16
17
0-
0C
0@
0A
0*
0+
#140000
0(
0%
08
06
07
1-
1:
#150000
1%
16
17
0-
1;
1>
0:
1,
1?
#160000
0%
06
07
1-
#170000
1%
16
17
0-
1@
0;
1:
1+
0,
#180000
0%
06
07
1-
#190000
1%
16
17
0-
1;
1A
0>
0:
1,
1B
0?
#200000
0%
06
07
1-
#210000
1%
16
17
0-
1C
0@
0;
1:
1*
0+
0,
#220000
0%
06
07
1-
#230000
1%
16
17
0-
1;
1>
0:
1,
1?
#240000
0%
06
07
1-
#250000
1&
1$
1#
1%
1=
15
14
16
17
0-
1E
0>
0?
1@
0;
1+
0,
#260000
0%
06
07
1-
#270000
0&
1%
0=
16
17
0-
0E
1>
1:
1?
1F
0@
1D
0>
1)
0+
1E
0?
#280000
0%
06
07
1-
#290000
0$
0#
1%
05
04
16
17
0-
1;
1>
0:
1,
1?
#300000
0%
06
07
1-
#310000
1%
16
17
0-
1@
0;
1:
1+
0,
#320000
0%
06
07
1-
#330000
1%
16
17
0-
1;
0D
0A
0>
0:
1,
0E
0B
0?
#340000
0%
06
07
1-
#350000
1%
16
17
0-
0F
0C
0@
0;
1:
0)
0*
0+
0,
#360000
0%
06
07
1-
#370000
1%
16
17
0-
1;
1>
0:
1,
1?
#380000
0%
06
07
1-
#390000
1%
16
17
0-
1@
0;
1:
1+
0,
#400000
0%
06
07
1-
#410000
1%
16
17
0-
1;
1A
0>
0:
1,
1B
0?
#420000
0%
06
07
1-
#430000
1%
16
17
0-
1C
0@
0;
1:
1*
0+
0,
#440000
0%
06
07
1-
#450000
1%
16
17
0-
1;
1>
0:
1,
1?
#460000
0%
06
07
1-
#470000
1%
16
17
0-
1@
0;
1:
1+
0,
#480000
0%
06
07
1-
#490000
1%
16
17
0-
1;
1D
0A
0>
0:
1,
1E
0B
0?
#500000
0%
06
07
1-
#510000
1%
16
17
0-
1F
0C
0@
0;
1:
1)
0*
0+
0,
#520000
0%
06
07
1-
#530000
1%
16
17
0-
1;
1>
0:
1,
1?
#540000
0%
06
07
1-
#550000
1%
16
17
0-
1@
0;
1:
1+
0,
#560000
0%
06
07
1-
#570000
1%
16
17
0-
1;
1A
0>
0:
1,
1B
0?
#580000
0%
06
07
1-
#590000
1%
16
17
0-
1C
0@
0;
1:
1*
0+
0,
#600000
0%
06
07
1-
#610000
1%
16
17
0-
1;
1>
0:
1,
1?
#620000
0%
06
07
1-
#630000
1%
16
17
0-
1@
0;
1:
1+
0,
#640000
0%
06
07
1-
#650000
1%
16
17
0-
1;
0D
0A
0>
0:
1,
0E
0B
0?
#660000
0%
06
07
1-
#670000
1%
16
17
0-
0F
0C
0@
0;
1:
0)
0*
0+
0,
#680000
0%
06
07
1-
#690000
1%
16
17
0-
1;
1>
0:
1,
1?
#700000
0%
06
07
1-
#710000
1%
16
17
0-
1@
0;
1:
1+
0,
#720000
0%
06
07
1-
#730000
1%
16
17
0-
1;
1A
0>
0:
1,
1B
0?
#740000
0%
06
07
1-
#750000
1%
16
17
0-
1C
0@
0;
1:
1*
0+
0,
#760000
0%
06
07
1-
#770000
1%
16
17
0-
1;
1>
0:
1,
1?
#780000
0%
06
07
1-
#790000
1%
16
17
0-
1@
0;
1:
1+
0,
#800000
0%
06
07
1-
#810000
1%
16
17
0-
1;
1D
0A
0>
0:
1,
1E
0B
0?
#820000
0%
06
07
1-
#830000
1%
16
17
0-
1F
0C
0@
0;
1:
1)
0*
0+
0,
#840000
0%
06
07
1-
#850000
1%
16
17
0-
1;
1>
0:
1,
1?
#860000
0%
06
07
1-
#870000
1%
16
17
0-
1@
0;
1:
1+
0,
#880000
0%
06
07
1-
#890000
1%
16
17
0-
1;
1A
0>
0:
1,
1B
0?
#900000
0%
06
07
1-
#910000
1%
16
17
0-
1C
0@
0;
1:
1*
0+
0,
#920000
0%
06
07
1-
#930000
1%
16
17
0-
1;
1>
0:
1,
1?
#940000
0%
06
07
1-
#950000
1%
16
17
0-
1@
0;
1:
1+
0,
#960000
0%
06
07
1-
#970000
1%
16
17
0-
1;
0D
0A
0>
0:
1,
0E
0B
0?
#980000
0%
06
07
1-
#990000
1%
16
17
0-
0F
0C
0@
0;
1:
0)
0*
0+
0,
